Proyecto ALU_Seven_Segments/ALU_SevenSegments/ALU_TB.vcd
$date
  Thu Feb 14 15:27:27 2019
$end
$version
  GHDL v0
$end
$timescale
  1 fs
$end
$var reg 8 ! a[7:0] $end
$var reg 8 " b[7:0] $end
$var reg 8 # r[7:0] $end
$var reg 4 $ s[3:0] $end
$var reg 1 % sn $end
$var reg 1 & z $end
$var reg 1 ' v $end
$var reg 1 ( c $end
$var reg 1 ) g $end
$var reg 1 * l $end
$var reg 1 + e $end
$scope module behavioral $end
$var reg 8 , a[7:0] $end
$var reg 8 - b[7:0] $end
$var reg 4 . s[3:0] $end
$var reg 8 / r[7:0] $end
$var reg 1 0 sn $end
$var reg 1 1 z $end
$var reg 1 2 v $end
$var reg 1 3 c $end
$var reg 1 4 g $end
$var reg 1 5 l $end
$var reg 1 6 e $end
$var reg 8 7 m[7:0] $end
$var reg 8 8 p[7:0] $end
$var reg 1 9 go $end
$var reg 1 : eo $end
$var reg 1 ; lo $end
$var reg 8 < zero[7:0] $end
$scope module cmp $end
$var reg 8 = a[7:0] $end
$var reg 8 > b[7:0] $end
$var reg 1 ? g $end
$var reg 1 @ e $end
$var reg 1 A l $end
$var reg 1 B gi $end
$var reg 1 C ei $end
$var reg 1 D li $end
$scope module block_one $end
$var reg 1 E a $end
$var reg 1 F b $end
$var reg 1 G go $end
$var reg 1 H eo $end
$var reg 1 I lo $end
$upscope $end
$scope module block_two $end
$var reg 7 J a[6:0] $end
$var reg 7 K b[6:0] $end
$var reg 1 L gi $end
$var reg 1 M ei $end
$var reg 1 N li $end
$var reg 1 O go $end
$var reg 1 P eo $end
$var reg 1 Q lo $end
$var reg 8 R g[7:0] $end
$var reg 8 S e[7:0] $end
$var reg 8 T l[7:0] $end
$upscope $end
$upscope $end
$upscope $end
$enddefinitions $end
#0
b01011101 !
b11001100 "
b00101001 #
b0000 $
0%
0&
0'
1(
0)
0*
0+
b01011101 ,
b11001100 -
b0000 .
b00101001 /
00
01
02
13
04
05
06
b00101001 7
b11111111 8
09
0:
1;
b00000000 <
b01011101 =
b11001100 >
0?
0@
1A
0B
0C
1D
0E
1F
0G
0H
1I
b1011101 J
b1001100 K
0L
0M
1N
0O
0P
1Q
b00000000 R
b00000000 S
b11111111 T
#20000000
b01111101 !
b11001110 "
b01001100 #
b0001 $
0(
b01111101 ,
b11001110 -
b0001 .
b01001100 /
03
b01001100 7
b11111100 8
b01111101 =
b11001110 >
b1111101 J
b1001110 K
#40000000
b01011101 !
b11011100 "
b00000000 #
b0010 $
1&
b01011101 ,
b11011100 -
b0010 .
b00000000 /
11
b00000000 7
b00000000 8
b01011101 =
b11011100 >
b1011101 J
b1011100 K
#60000000
b11001110 "
b10100010 #
b0011 $
1%
0&
b11001110 -
b0011 .
b10100010 /
10
01
b10100010 7
b11111110 8
b11001110 >
b1001110 K
#80000000
b11000000 "
b00000000 #
b0100 $
0%
1&
1*
b11000000 -
b0100 .
b00000000 /
00
11
15
b00000000 7
b00000000 8
b11000000 >
b1000000 K
#100000000
b01111101 !
b11001110 "
b01111100 #
b0101 $
0&
0*
b01111101 ,
b11001110 -
b0101 .
b01111100 /
01
05
b01111100 7
b11111100 8
b01111101 =
b11001110 >
b1111101 J
b1001110 K
#120000000
b01011101 !
b11001100 "
b01011110 #
b0110 $
b01011101 ,
b11001100 -
b0110 .
b01011110 /
b01011110 7
b11111110 8
b01011101 =
b11001100 >
b1011101 J
b1001100 K
#140000000
b10001110 "
b11011111 #
b0111 $
1%
b10001110 -
b0111 .
b11011111 /
10
b11011111 7
b11111111 8
b10001110 >
b0001110 K
#160000000
b11001100 "
b01011101 #
b1000 $
0%
b11001100 -
b1000 .
b01011101 /
00
b01011101 7
b11001100 >
b1001100 K
#180000000
b01001101 !
b11000010 "
b10110011 #
b1001 $
1%
b01001101 ,
b11000010 -
b1001 .
b10110011 /
10
b10110011 7
b01001101 =
b11000010 >
b1001101 J
b1000010 K
#200000000
b01000001 !
b11000000 "
b10000011 #
b1010 $
b01000001 ,
b11000000 -
b1010 .
b10000011 /
b10000011 7
b01000001 =
b11000000 >
b1000001 J
b1000000 K
#220000000
b00001101 !
b11001110 "
b00000110 #
b1011 $
0%
b00001101 ,
b11001110 -
b1011 .
b00000110 /
00
b00000110 7
b11111110 8
b00001101 =
b11001110 >
b0001101 J
b1001110 K
#240000000
b00000101 !
b11001100 "
b11111111 #
b1100 $
1%
b00000101 ,
b11001100 -
b1100 .
b11111111 /
10
b11111111 7
b11111111 8
b00000101 =
b11001100 >
b0000101 J
b1001100 K
#260000000
b01111101 !
b11001110 "
b10101110 #
b1101 $
b01111101 ,
b11001110 -
b1101 .
b10101110 /
b10101110 7
b11111110 8
b01111101 =
b11001110 >
b1111101 J
b1001110 K
#280000000
b00011101 !
b00011100 "
b11010001 #
b1110 $
b00011101 ,
b00011100 -
b1110 .
b11010001 /
b11010001 7
b11111111 8
19
0;
b00011101 =
b00011100 >
1?
0A
1C
0D
0F
1H
0I
b0011101 J
b0011100 K
1M
0N
1O
0Q
b00000001 R
b11111110 S
b00000000 T
#300000000
b01011101 !
b11001110 "
b10010011 #
b1111 $
b01011101 ,
b11001110 -
b1111 .
b10010011 /
b10010011 7
09
1;
b01011101 =
b11001110 >
0?
1A
0C
1D
1F
0H
1I
b1011101 J
b1001110 K
0M
1N
0O
1Q
b00000000 R
b00000000 S
b11111111 T
#320000000
b01011111 !
b11001100 "
b00101011 #
b0000 $
0%
1(
b01011111 ,
b11001100 -
b0000 .
b00101011 /
00
13
b00101011 7
b01011111 =
b11001100 >
b1011111 J
b1001100 K
#340000000
b01111101 !
b11001110 "
b01001100 #
b0001 $
0(
b01111101 ,
b11001110 -
b0001 .
b01001100 /
03
b01001100 7
b11111100 8
b01111101 =
b11001110 >
b1111101 J
b1001110 K
#360000000
b11111100 "
b00000000 #
b0010 $
1&
b11111100 -
b0010 .
b00000000 /
11
b00000000 7
b00000000 8
b11111100 >
b1111100 K
#380000000
b11001110 "
b10000010 #
b0011 $
1%
0&
b11001110 -
b0011 .
b10000010 /
10
01
b10000010 7
b11111110 8
b11001110 >
b1001110 K
#400000000
b01011101 !
b01000000 "
b00000000 #
b0100 $
0%
1&
1*
b01011101 ,
b01000000 -
b0100 .
b00000000 /
00
11
15
b00000000 7
b00000000 8
19
0;
b01011101 =
b01000000 >
1?
0A
1C
0D
0F
1H
0I
b1011101 J
b1000000 K
1M
0N
1O
0Q
b00011111 R
b11100000 S
b00000000 T
#420000000
b00000000 !
b11001110 "
b11111111 #
b0101 $
1%
0&
1(
0*
b00000000 ,
b11001110 -
b0101 .
b11111111 /
10
01
13
05
b11111111 7
b11111111 8
09
1;
b00000000 =
b11001110 >
0?
1A
0C
1D
1F
0H
1I
b0000000 J
b1001110 K
0M
1N
0O
1Q
b00000000 R
b00000000 S
b11111111 T
#440000000
b11111111 !
b11001100 "
b00000000 #
b0110 $
0%
1&
1'
b11111111 ,
b11001100 -
b0110 .
b00000000 /
00
11
12
b00000000 7
b00000000 8
19
0;
b11111111 =
b11001100 >
1?
0A
1C
0D
1E
1H
0I
b1111111 J
b1001100 K
1M
0N
1O
0Q
b00111111 R
b11000000 S
b00000000 T
#460000000
b01011111 !
b10001110 "
b11011111 #
b0111 $
1%
0&
0'
0(
b01011111 ,
b10001110 -
b0111 .
b11011111 /
10
01
02
03
b11011111 7
b11111111 8
09
1;
b01011111 =
b10001110 >
0?
1A
0C
1D
0E
0H
1I
b1011111 J
b0001110 K
0M
1N
0O
1Q
b00000000 R
b00000000 S
b11111111 T
#480000000
b11001100 "
b01011111 #
b1000 $
0%
b11001100 -
b1000 .
b01011111 /
00
b01011111 7
b11001100 >
b1001100 K
#500000000
b01001111 !
b11000010 "
b10110001 #
b1001 $
1%
b01001111 ,
b11000010 -
b1001 .
b10110001 /
10
b10110001 7
b01001111 =
b11000010 >
b1001111 J
b1000010 K
#520000000
b01000011 !
b11000000 "
b10000111 #
b1010 $
b01000011 ,
b11000000 -
b1010 .
b10000111 /
b10000111 7
b01000011 =
b11000000 >
b1000011 J
b1000000 K
#540000000
b00001111 !
b11001110 "
b1011 $
b00001111 ,
b11001110 -
b1011 .
b00001111 =
b11001110 >
b0001111 J
b1001110 K
#560000000
b11000101 !
b11001100 "
b11111111 #
b1100 $
b11000101 ,
b11001100 -
b1100 .
b11111111 /
b11111111 7
b11000101 =
b11001100 >
1C
0D
1E
1H
0I
b1000101 J
b1001100 K
1M
0N
b11110000 S
b00001111 T
#580000000
b01111101 !
b00001110 "
b01101110 #
b1101 $
0%
0'
1(
b01111101 ,
b00001110 -
b1101 .
b01101110 /
00
02
13
b01101110 7
b11111110 8
19
0;
b01111101 =
b00001110 >
1?
0A
0E
0F
b1111101 J
b0001110 K
1O
0Q
b01111111 R
b10000000 S
b00000000 T
#600000000
b00011100 !
b00011100 "
b11000001 #
b1110 $
1%
0(
b00011100 ,
b00011100 -
b1110 .
b11000001 /
10
03
b11000001 7
b11111111 8
09
1:
b00011100 =
b00011100 >
0?
1@
b0011100 J
b0011100 K
0O
1P
b00000000 R
b11111111 S
#620000000
b01010000 !
b11001110 "
b10011110 #
b1111 $
b01010000 ,
b11001110 -
b1111 .
b10011110 /
b10011110 7
b11111110 8
09
0:
1;
b01010000 =
b11001110 >
0?
0@
1A
0C
1D
1F
0H
1I
b1010000 J
b1001110 K
0M
1N
0O
0P
1Q
b00000000 R
b00000000 S
b11111111 T
#640000000
b01011101 !
b10000010 "
b11011111 #
b0000 $
b01011101 ,
b10000010 -
b0000 .
b11011111 /
b11011111 7
b11111111 8
b01011101 =
b10000010 >
b1011101 J
b0000010 K
#660000000
b01111101 !
b11000010 "
b01000000 #
b0001 $
0%
b01111101 ,
b11000010 -
b0001 .
b01000000 /
00
b01000000 7
b11000000 8
b01111101 =
b11000010 >
b1111101 J
b1000010 K
#680000000
b01011101 !
b11011100 "
b00000000 #
b0010 $
1&
b01011101 ,
b11011100 -
b0010 .
b00000000 /
11
b00000000 7
b00000000 8
b01011101 =
b11011100 >
b1011101 J
b1011100 K
#700000000
b11001110 "
b10100010 #
b0011 $
1%
0&
b11001110 -
b0011 .
b10100010 /
10
01
b10100010 7
b11111110 8
b11001110 >
b1001110 K
#720000000
b01011101 "
b00000000 #
b0100 $
0%
1&
1*
b01011101 -
b0100 .
b00000000 /
00
11
15
b00000000 7
b00000000 8
1:
0;
b01011101 >
1@
0A
1C
0D
0F
1H
0I
b1011101 K
1M
0N
1P
0Q
b11111111 S
b00000000 T
#740000000
b00000001 !
b11001110 "
b0101 $
0*
b00000001 ,
b11001110 -
b0101 .
05
09
0:
1;
b00000001 =
b11001110 >
0?
0@
1A
0C
1D
1F
0H
1I
b0000001 J
b1001110 K
0M
1N
0O
0P
1Q
b00000000 R
b00000000 S
b11111111 T
#760000000
b00000000 !
b11001100 "
b00000001 #
b0110 $
0&
b00000000 ,
b11001100 -
b0110 .
b00000001 /
01
b00000001 7
b11111111 8
b00000000 =
b11001100 >
b0000000 J
b1001100 K
#780000000
b01011101 !
b10001110 "
b11011111 #
b0111 $
1%
b01011101 ,
b10001110 -
b0111 .
b11011111 /
10
b11011111 7
b01011101 =
b10001110 >
b1011101 J
b0001110 K
#800000000
b11001100 "
b01011101 #
b1000 $
0%
b11001100 -
b1000 .
b01011101 /
00
b01011101 7
b11001100 >
b1001100 K
#820000000
b01001101 !
b11000010 "
b10110011 #
b1001 $
1%
b01001101 ,
b11000010 -
b1001 .
b10110011 /
10
b10110011 7
b01001101 =
b11000010 >
b1001101 J
b1000010 K
#840000000
b01000001 !
b11000000 "
b10000011 #
b1010 $
b01000001 ,
b11000000 -
b1010 .
b10000011 /
b10000011 7
b01000001 =
b11000000 >
b1000001 J
b1000000 K
#860000000
b00001101 !
b11001110 "
b00000110 #
b1011 $
0%
b00001101 ,
b11001110 -
b1011 .
b00000110 /
00
b00000110 7
b11111110 8
b00001101 =
b11001110 >
b0001101 J
b1001110 K
#880000000
b00000101 !
b11001100 "
b11111111 #
b1100 $
1%
b00000101 ,
b11001100 -
b1100 .
b11111111 /
10
b11111111 7
b11111111 8
b00000101 =
b11001100 >
b0000101 J
b1001100 K
#900000000
b01111101 !
b11001110 "
b10101110 #
b1101 $
b01111101 ,
b11001110 -
b1101 .
b10101110 /
b10101110 7
b11111110 8
b01111101 =
b11001110 >
b1111101 J
b1001110 K
#920000000
b00011101 !
b00011100 "
b11010001 #
b1110 $
b00011101 ,
b00011100 -
b1110 .
b11010001 /
b11010001 7
b11111111 8
19
0;
b00011101 =
b00011100 >
1?
0A
1C
0D
0F
1H
0I
b0011101 J
b0011100 K
1M
0N
1O
0Q
b00000001 R
b11111110 S
b00000000 T
#940000000
b01011101 !
b11001110 "
b10010011 #
b1111 $
b01011101 ,
b11001110 -
b1111 .
b10010011 /
b10010011 7
09
1;
b01011101 =
b11001110 >
0?
1A
0C
1D
1F
0H
1I
b1011101 J
b1001110 K
0M
1N
0O
1Q
b00000000 R
b00000000 S
b11111111 T
