Proyecto ALU_Seven_Segments/ALU_SevenSegments/ALU_SevenSegments.vcd
$date
  Wed Aug  9 21:25:27 2023
$end
$version
  GHDL v0
$end
$timescale
  1 fs
$end
$scope module standard $end
$upscope $end
$scope module std_logic_1164 $end
$upscope $end
$scope module numeric_std $end
$upscope $end
$scope module tb_alu_sevensegments $end
$var reg 8 ! a[7:0] $end
$var reg 8 " b[7:0] $end
$var reg 28 # d[27:0] $end
$var reg 4 $ s[3:0] $end
$var reg 1 % sn $end
$var reg 1 & z $end
$var reg 1 ' v $end
$var reg 1 ( c $end
$var reg 1 ) g $end
$var reg 1 * l $end
$var reg 1 + e $end
$scope module simblk $end
$var reg 8 , a[7:0] $end
$var reg 8 - b[7:0] $end
$var reg 4 . s[3:0] $end
$var reg 28 / d[27:0] $end
$var reg 1 0 sn $end
$var reg 1 1 z $end
$var reg 1 2 v $end
$var reg 1 3 c $end
$var reg 1 4 g $end
$var reg 1 5 l $end
$var reg 1 6 e $end
$var reg 8 7 r[7:0] $end
$scope module bloque01 $end
$var reg 8 8 a[7:0] $end
$var reg 8 9 b[7:0] $end
$var reg 4 : s[3:0] $end
$var reg 8 ; r[7:0] $end
$var reg 1 < sn $end
$var reg 1 = z $end
$var reg 1 > v $end
$var reg 1 ? c $end
$var reg 1 @ g $end
$var reg 1 A l $end
$var reg 1 B e $end
$var reg 8 C m[7:0] $end
$var reg 8 D p[7:0] $end
$var reg 1 E go $end
$var reg 1 F eo $end
$var reg 1 G lo $end
$var reg 8 H zero[7:0] $end
$scope module cmp $end
$var reg 8 I a[7:0] $end
$var reg 8 J b[7:0] $end
$var reg 1 K g $end
$var reg 1 L e $end
$var reg 1 M l $end
$var reg 1 N gi $end
$var reg 1 O ei $end
$var reg 1 P li $end
$scope module block_one $end
$var reg 1 Q a $end
$var reg 1 R b $end
$var reg 1 S go $end
$var reg 1 T eo $end
$var reg 1 U lo $end
$upscope $end
$scope module block_two $end
$var reg 7 V a[6:0] $end
$var reg 7 W b[6:0] $end
$var reg 1 X gi $end
$var reg 1 Y ei $end
$var reg 1 Z li $end
$var reg 1 [ go $end
$var reg 1 \ eo $end
$var reg 1 ] lo $end
$var reg 8 ^ g[7:0] $end
$var reg 8 _ e[7:0] $end
$var reg 8 ` l[7:0] $end
$upscope $end
$upscope $end
$upscope $end
$scope module bloque02 $end
$var reg 8 a x[7:0] $end
$var reg 28 b y[27:0] $end
$upscope $end
$upscope $end
$upscope $end
$enddefinitions $end
#0
b01011101 !
b11001100 "
b0000000111111001100110110000 #
b0000 $
0%
0&
0'
1(
0)
0*
0+
b01011101 ,
b11001100 -
b0000 .
b0000000111111001100110110000 /
00
01
02
13
04
05
06
b00101001 7
b01011101 8
b11001100 9
b0000 :
b00101001 ;
0<
0=
0>
1?
0@
0A
0B
b00101001 C
b11111111 D
0E
0F
1G
b00000000 H
b01011101 I
b11001100 J
0K
0L
1M
0N
0O
1P
0Q
1R
0S
0T
1U
b1011101 V
b1001100 W
0X
0Y
1Z
0[
0\
1]
b00000000 ^
b00000000 _
b11111111 `
b00101001 a
b0000000111111001100110110000 b
#20000000
b01111101 !
b11001110 "
b0000000111111011100010011111 #
b0001 $
0(
b01111101 ,
b11001110 -
b0001 .
b0000000111111011100010011111 /
03
b01001100 7
b01111101 8
b11001110 9
b0001 :
b01001100 ;
0?
b01001100 C
b11111100 D
b01111101 I
b11001110 J
b1111101 V
b1001110 W
b01001100 a
b0000000111111011100010011111 b
#40000000
b01011101 !
b11011100 "
b0000000111111011111101111110 #
b0010 $
1&
b01011101 ,
b11011100 -
b0010 .
b0000000111111011111101111110 /
11
b00000000 7
b01011101 8
b11011100 9
b0010 :
b00000000 ;
1=
b00000000 C
b00000000 D
b01011101 I
b11011100 J
b1011101 V
b1011100 W
b00000000 a
b0000000111111011111101111110 b
#60000000
b11001110 "
b0000001111111011100110110011 #
b0011 $
1%
0&
b11001110 -
b0011 .
b0000001111111011100110110011 /
10
01
b10100010 7
b11001110 9
b0011 :
b10100010 ;
1<
0=
b10100010 C
b11111110 D
b11001110 J
b1001110 W
b10100010 a
b0000001111111011100110110011 b
#80000000
b11000000 "
b0000000111111011111101111110 #
b0100 $
0%
1&
1*
b11000000 -
b0100 .
b0000000111111011111101111110 /
00
11
15
b00000000 7
b11000000 9
b0100 :
b00000000 ;
0<
1=
1A
b00000000 C
b00000000 D
b11000000 J
b1000000 W
b00000000 a
b0000000111111011111101111110 b
#100000000
b01111101 !
b11001110 "
b0000000011000010011010110011 #
b0101 $
0&
0*
b01111101 ,
b11001110 -
b0101 .
b0000000011000010011010110011 /
01
05
b01111100 7
b01111101 8
b11001110 9
b0101 :
b01111100 ;
0=
0A
b01111100 C
b11111100 D
b01111101 I
b11001110 J
b1111101 V
b1001110 W
b01111100 a
b0000000011000010011010110011 b
#120000000
b01011101 !
b11001100 "
b0000000111111011100110110011 #
b0110 $
b01011101 ,
b11001100 -
b0110 .
b0000000111111011100110110011 /
b01011110 7
b01011101 8
b11001100 9
b0110 :
b01011110 ;
b01011110 C
b11111110 D
b01011101 I
b11001100 J
b1011101 V
b1001100 W
b01011110 a
b0000000111111011100110110011 b
#140000000
b10001110 "
b0000001111111011110011111001 #
b0111 $
1%
b10001110 -
b0111 .
b0000001111111011110011111001 /
10
b11011111 7
b10001110 9
b0111 :
b11011111 ;
1<
b11011111 C
b11111111 D
b10001110 J
b0001110 W
b11011111 a
b0000001111111011110011111001 b
#160000000
b11001100 "
b0000000111111011100111111001 #
b1000 $
0%
b11001100 -
b1000 .
b0000000111111011100111111001 /
00
b01011101 7
b11001100 9
b1000 :
b01011101 ;
0<
b01011101 C
b11001100 J
b1001100 W
b01011101 a
b0000000111111011100111111001 b
#180000000
b01001101 !
b11000010 "
b0000001111111011100011110001 #
b1001 $
1%
b01001101 ,
b11000010 -
b1001 .
b0000001111111011100011110001 /
10
b10110011 7
b01001101 8
b11000010 9
b1001 :
b10110011 ;
1<
b10110011 C
b01001101 I
b11000010 J
b1001101 V
b1000010 W
b10110011 a
b0000001111111011100011110001 b
#200000000
b01000001 !
b11000000 "
b0000001011000010011011011011 #
b1010 $
b01000001 ,
b11000000 -
b1010 .
b0000001011000010011011011011 /
b10000011 7
b01000001 8
b11000000 9
b1010 :
b10000011 ;
b10000011 C
b01000001 I
b11000000 J
b1000001 V
b1000000 W
b10000011 a
b0000001011000010011011011011 b
#220000000
b00001101 !
b11001110 "
b0000000111111011111100011111 #
b1011 $
0%
b00001101 ,
b11001110 -
b1011 .
b0000000111111011111100011111 /
00
b00000110 7
b00001101 8
b11001110 9
b1011 :
b00000110 ;
0<
b00000110 C
b11111110 D
b00001101 I
b11001110 J
b0001101 V
b1001110 W
b00000110 a
b0000000111111011111100011111 b
#240000000
b00000101 !
b11001100 "
b0000001111111011111100110000 #
b1100 $
1%
b00000101 ,
b11001100 -
b1100 .
b0000001111111011111100110000 /
10
b11111111 7
b00000101 8
b11001100 9
b1100 :
b11111111 ;
1<
b11111111 C
b11111111 D
b00000101 I
b11001100 J
b0000101 V
b1001100 W
b11111111 a
b0000001111111011111100110000 b
#260000000
b01111101 !
b11001110 "
b0000001111111011111111001101 #
b1101 $
b01111101 ,
b11001110 -
b1101 .
b0000001111111011111111001101 /
b10101110 7
b01111101 8
b11001110 9
b1101 :
b10101110 ;
b10101110 C
b11111110 D
b01111101 I
b11001110 J
b1111101 V
b1001110 W
b10101110 a
b0000001111111011111111001101 b
#280000000
b00011101 !
b00011100 "
b0000001111111001100111110001 #
b1110 $
b00011101 ,
b00011100 -
b1110 .
b0000001111111001100111110001 /
b11010001 7
b00011101 8
b00011100 9
b1110 :
b11010001 ;
b11010001 C
b11111111 D
1E
0G
b00011101 I
b00011100 J
1K
0M
1O
0P
0R
1T
0U
b0011101 V
b0011100 W
1Y
0Z
1[
0]
b00000001 ^
b11111110 _
b00000000 `
b11010001 a
b0000001111111001100111110001 b
#300000000
b01011101 !
b11001110 "
b0000001011000011111101110011 #
b1111 $
b01011101 ,
b11001110 -
b1111 .
b0000001011000011111101110011 /
b10010011 7
b01011101 8
b11001110 9
b1111 :
b10010011 ;
b10010011 C
0E
1G
b01011101 I
b11001110 J
0K
1M
0O
1P
1R
0T
1U
b1011101 V
b1001110 W
0Y
1Z
0[
1]
b00000000 ^
b00000000 _
b11111111 `
b10010011 a
b0000001011000011111101110011 b
#320000000
b01011111 !
b11001100 "
b0000000111111001100111111001 #
b0000 $
0%
1(
b01011111 ,
b11001100 -
b0000 .
b0000000111111001100111111001 /
00
13
b00101011 7
b01011111 8
b11001100 9
b0000 :
b00101011 ;
0<
1?
b00101011 C
b01011111 I
b11001100 J
b1011111 V
b1001100 W
b00101011 a
b0000000111111001100111111001 b
#340000000
b01111101 !
b11001110 "
b0000000111111011100010011111 #
b0001 $
0(
b01111101 ,
b11001110 -
b0001 .
b0000000111111011100010011111 /
03
b01001100 7
b01111101 8
b11001110 9
b0001 :
b01001100 ;
0?
b01001100 C
b11111100 D
b01111101 I
b11001110 J
b1111101 V
b1001110 W
b01001100 a
b0000000111111011100010011111 b
#360000000
b11111100 "
b0000000111111011111101111110 #
b0010 $
1&
b11111100 -
b0010 .
b0000000111111011111101111110 /
11
b00000000 7
b11111100 9
b0010 :
b00000000 ;
1=
b00000000 C
b00000000 D
b11111100 J
b1111100 W
b00000000 a
b0000000111111011111101111110 b
#380000000
b11001110 "
b0000001011000010011010011111 #
b0011 $
1%
0&
b11001110 -
b0011 .
b0000001011000010011010011111 /
10
01
b10000010 7
b11001110 9
b0011 :
b10000010 ;
1<
0=
b10000010 C
b11111110 D
b11001110 J
b1001110 W
b10000010 a
b0000001011000010011010011111 b
#400000000
b01011101 !
b01000000 "
b0000000111111011111101111110 #
b0100 $
0%
1&
1)
0*
b01011101 ,
b01000000 -
b0100 .
b0000000111111011111101111110 /
00
11
14
05
b00000000 7
b01011101 8
b01000000 9
b0100 :
b00000000 ;
0<
1=
1@
0A
b00000000 C
b00000000 D
1E
0G
b01011101 I
b01000000 J
1K
0M
1O
0P
0R
1T
0U
b1011101 V
b1000000 W
1Y
0Z
1[
0]
b00011111 ^
b11100000 _
b00000000 `
b00000000 a
b0000000111111011111101111110 b
#420000000
b00000000 !
b11001110 "
b0000001111111011111100110000 #
b0101 $
1%
0&
1(
0)
b00000000 ,
b11001110 -
b0101 .
b0000001111111011111100110000 /
10
01
13
04
b11111111 7
b00000000 8
b11001110 9
b0101 :
b11111111 ;
1<
0=
1?
0@
b11111111 C
b11111111 D
0E
1G
b00000000 I
b11001110 J
0K
1M
0O
1P
1R
0T
1U
b0000000 V
b1001110 W
0Y
1Z
0[
1]
b00000000 ^
b00000000 _
b11111111 `
b11111111 a
b0000001111111011111100110000 b
#440000000
b11111111 !
b11001100 "
b0000000111111011111101111110 #
b0110 $
0%
1&
1'
b11111111 ,
b11001100 -
b0110 .
b0000000111111011111101111110 /
00
11
12
b00000000 7
b11111111 8
b11001100 9
b0110 :
b00000000 ;
0<
1=
1>
b00000000 C
b00000000 D
1E
0G
b11111111 I
b11001100 J
1K
0M
1O
0P
1Q
1T
0U
b1111111 V
b1001100 W
1Y
0Z
1[
0]
b00111111 ^
b11000000 _
b00000000 `
b00000000 a
b0000000111111011111101111110 b
#460000000
b01011111 !
b10001110 "
b0000001111111011110011111001 #
b0111 $
1%
0&
0'
0(
b01011111 ,
b10001110 -
b0111 .
b0000001111111011110011111001 /
10
01
02
03
b11011111 7
b01011111 8
b10001110 9
b0111 :
b11011111 ;
1<
0=
0>
0?
b11011111 C
b11111111 D
0E
1G
b01011111 I
b10001110 J
0K
1M
0O
1P
0Q
0T
1U
b1011111 V
b0001110 W
0Y
1Z
0[
1]
b00000000 ^
b00000000 _
b11111111 `
b11011111 a
b0000001111111011110011111001 b
#480000000
b11001100 "
b0000000111111011100111011011 #
b1000 $
0%
b11001100 -
b1000 .
b0000000111111011100111011011 /
00
b01011111 7
b11001100 9
b1000 :
b01011111 ;
0<
b01011111 C
b11001100 J
b1001100 W
b01011111 a
b0000000111111011100111011011 b
#500000000
b01001111 !
b11000010 "
b0000001111111011100011110011 #
b1001 $
1%
b01001111 ,
b11000010 -
b1001 .
b0000001111111011100011110011 /
10
b10110001 7
b01001111 8
b11000010 9
b1001 :
b10110001 ;
1<
b10110001 C
b01001111 I
b11000010 J
b1001111 V
b1000010 W
b10110001 a
b0000001111111011100011110011 b
#520000000
b01000011 !
b11000000 "
b0000001011000010011010110000 #
b1010 $
b01000011 ,
b11000000 -
b1010 .
b0000001011000010011010110000 /
b10000111 7
b01000011 8
b11000000 9
b1010 :
b10000111 ;
b10000111 C
b01000011 I
b11000000 J
b1000011 V
b1000000 W
b10000111 a
b0000001011000010011010110000 b
#540000000
b00001111 !
b11001110 "
b1011 $
b00001111 ,
b11001110 -
b1011 .
b00001111 8
b11001110 9
b1011 :
b00001111 I
b11001110 J
b0001111 V
b1001110 W
#560000000
b11000101 !
b11001100 "
b0000001111111011111100110000 #
b1100 $
b11000101 ,
b11001100 -
b1100 .
b0000001111111011111100110000 /
b11111111 7
b11000101 8
b11001100 9
b1100 :
b11111111 ;
b11111111 C
b11000101 I
b11001100 J
1O
0P
1Q
1T
0U
b1000101 V
b1001100 W
1Y
0Z
b11110000 _
b00001111 `
b11111111 a
b0000001111111011111100110000 b
#580000000
b01111101 !
b00001110 "
b0000000011000001100001111110 #
b1101 $
0%
0'
1(
b01111101 ,
b00001110 -
b1101 .
b0000000011000001100001111110 /
00
02
13
b01101110 7
b01111101 8
b00001110 9
b1101 :
b01101110 ;
0<
0>
1?
b01101110 C
b11111110 D
1E
0G
b01111101 I
b00001110 J
1K
0M
0Q
0R
b1111101 V
b0001110 W
1[
0]
b01111111 ^
b10000000 _
b00000000 `
b01101110 a
b0000000011000001100001111110 b
#600000000
b00011100 !
b00011100 "
b0000001111111000111111111001 #
b1110 $
1%
0(
b00011100 ,
b00011100 -
b1110 .
b0000001111111000111111111001 /
10
03
b11000001 7
b00011100 8
b00011100 9
b1110 :
b11000001 ;
1<
0?
b11000001 C
b11111111 D
0E
1F
b00011100 I
b00011100 J
0K
1L
b0011100 V
b0011100 W
0[
1\
b00000000 ^
b11111111 _
b11000001 a
b0000001111111000111111111001 b
#620000000
b01010000 !
b11001110 "
b0000001111111011100111111111 #
b1111 $
b01010000 ,
b11001110 -
b1111 .
b0000001111111011100111111111 /
b10011110 7
b01010000 8
b11001110 9
b1111 :
b10011110 ;
b10011110 C
b11111110 D
0E
0F
1G
b01010000 I
b11001110 J
0K
0L
1M
0O
1P
1R
0T
1U
b1010000 V
b1001110 W
0Y
1Z
0[
0\
1]
b00000000 ^
b00000000 _
b11111111 `
b10011110 a
b0000001111111011100111111111 b
#640000000
b01011101 !
b10000010 "
b0000001111111011110011111001 #
b0000 $
b01011101 ,
b10000010 -
b0000 .
b0000001111111011110011111001 /
b11011111 7
b01011101 8
b10000010 9
b0000 :
b11011111 ;
b11011111 C
b11111111 D
b01011101 I
b10000010 J
b1011101 V
b0000010 W
b11011111 a
b0000001111111011110011111001 b
#660000000
b01111101 !
b11000010 "
b0000000111111000111110110011 #
b0001 $
0%
b01111101 ,
b11000010 -
b0001 .
b0000000111111000111110110011 /
00
b01000000 7
b01111101 8
b11000010 9
b0001 :
b01000000 ;
0<
b01000000 C
b11000000 D
b01111101 I
b11000010 J
b1111101 V
b1000010 W
b01000000 a
b0000000111111000111110110011 b
#680000000
b01011101 !
b11011100 "
b0000000111111011111101111110 #
b0010 $
1&
b01011101 ,
b11011100 -
b0010 .
b0000000111111011111101111110 /
11
b00000000 7
b01011101 8
b11011100 9
b0010 :
b00000000 ;
1=
b00000000 C
b00000000 D
b01011101 I
b11011100 J
b1011101 V
b1011100 W
b00000000 a
b0000000111111011111101111110 b
#700000000
b11001110 "
b0000001111111011100110110011 #
b0011 $
1%
0&
b11001110 -
b0011 .
b0000001111111011100110110011 /
10
01
b10100010 7
b11001110 9
b0011 :
b10100010 ;
1<
0=
b10100010 C
b11111110 D
b11001110 J
b1001110 W
b10100010 a
b0000001111111011100110110011 b
#720000000
b01011101 "
b0000000111111011111101111110 #
b0100 $
0%
1&
0*
1+
b01011101 -
b0100 .
b0000000111111011111101111110 /
00
11
05
16
b00000000 7
b01011101 9
b0100 :
b00000000 ;
0<
1=
0A
1B
b00000000 C
b00000000 D
1F
0G
b01011101 J
1L
0M
1O
0P
0R
1T
0U
b1011101 W
1Y
0Z
1\
0]
b11111111 _
b00000000 `
b00000000 a
b0000000111111011111101111110 b
#740000000
b00000001 !
b11001110 "
b0101 $
0+
b00000001 ,
b11001110 -
b0101 .
06
b00000001 8
b11001110 9
b0101 :
0B
0E
0F
1G
b00000001 I
b11001110 J
0K
0L
1M
0O
1P
1R
0T
1U
b0000001 V
b1001110 W
0Y
1Z
0[
0\
1]
b00000000 ^
b00000000 _
b11111111 `
#760000000
b00000000 !
b11001100 "
b0000000111111011111100110000 #
b0110 $
0&
b00000000 ,
b11001100 -
b0110 .
b0000000111111011111100110000 /
01
b00000001 7
b00000000 8
b11001100 9
b0110 :
b00000001 ;
0=
b00000001 C
b11111111 D
b00000000 I
b11001100 J
b0000000 V
b1001100 W
b00000001 a
b0000000111111011111100110000 b
#780000000
b01011101 !
b10001110 "
b0000001111111011110011111001 #
b0111 $
1%
b01011101 ,
b10001110 -
b0111 .
b0000001111111011110011111001 /
10
b11011111 7
b01011101 8
b10001110 9
b0111 :
b11011111 ;
1<
b11011111 C
b01011101 I
b10001110 J
b1011101 V
b0001110 W
b11011111 a
b0000001111111011110011111001 b
#800000000
b11001100 "
b0000000111111011100111111001 #
b1000 $
0%
b11001100 -
b1000 .
b0000000111111011100111111001 /
00
b01011101 7
b11001100 9
b1000 :
b01011101 ;
0<
b01011101 C
b11001100 J
b1001100 W
b01011101 a
b0000000111111011100111111001 b
#820000000
b01001101 !
b11000010 "
b0000001111111011100011110001 #
b1001 $
1%
b01001101 ,
b11000010 -
b1001 .
b0000001111111011100011110001 /
10
b10110011 7
b01001101 8
b11000010 9
b1001 :
b10110011 ;
1<
b10110011 C
b01001101 I
b11000010 J
b1001101 V
b1000010 W
b10110011 a
b0000001111111011100011110001 b
#840000000
b01000001 !
b11000000 "
b0000001011000010011011011011 #
b1010 $
b01000001 ,
b11000000 -
b1010 .
b0000001011000010011011011011 /
b10000011 7
b01000001 8
b11000000 9
b1010 :
b10000011 ;
b10000011 C
b01000001 I
b11000000 J
b1000001 V
b1000000 W
b10000011 a
b0000001011000010011011011011 b
#860000000
b00001101 !
b11001110 "
b0000000111111011111100011111 #
b1011 $
0%
b00001101 ,
b11001110 -
b1011 .
b0000000111111011111100011111 /
00
b00000110 7
b00001101 8
b11001110 9
b1011 :
b00000110 ;
0<
b00000110 C
b11111110 D
b00001101 I
b11001110 J
b0001101 V
b1001110 W
b00000110 a
b0000000111111011111100011111 b
#880000000
b00000101 !
b11001100 "
b0000001111111011111100110000 #
b1100 $
1%
b00000101 ,
b11001100 -
b1100 .
b0000001111111011111100110000 /
10
b11111111 7
b00000101 8
b11001100 9
b1100 :
b11111111 ;
1<
b11111111 C
b11111111 D
b00000101 I
b11001100 J
b0000101 V
b1001100 W
b11111111 a
b0000001111111011111100110000 b
#900000000
b01111101 !
b11001110 "
b0000001111111011111111001101 #
b1101 $
b01111101 ,
b11001110 -
b1101 .
b0000001111111011111111001101 /
b10101110 7
b01111101 8
b11001110 9
b1101 :
b10101110 ;
b10101110 C
b11111110 D
b01111101 I
b11001110 J
b1111101 V
b1001110 W
b10101110 a
b0000001111111011111111001101 b
#920000000
b00011101 !
b00011100 "
b0000001111111001100111110001 #
b1110 $
b00011101 ,
b00011100 -
b1110 .
b0000001111111001100111110001 /
b11010001 7
b00011101 8
b00011100 9
b1110 :
b11010001 ;
b11010001 C
b11111111 D
1E
0G
b00011101 I
b00011100 J
1K
0M
1O
0P
0R
1T
0U
b0011101 V
b0011100 W
1Y
0Z
1[
0]
b00000001 ^
b11111110 _
b00000000 `
b11010001 a
b0000001111111001100111110001 b
#940000000
b01011101 !
b11001110 "
b0000001011000011111101110011 #
b1111 $
b01011101 ,
b11001110 -
b1111 .
b0000001011000011111101110011 /
b10010011 7
b01011101 8
b11001110 9
b1111 :
b10010011 ;
b10010011 C
0E
1G
b01011101 I
b11001110 J
0K
1M
0O
1P
1R
0T
1U
b1011101 V
b1001110 W
0Y
1Z
0[
1]
b00000000 ^
b00000000 _
b11111111 `
b10010011 a
b0000001011000011111101110011 b
