Maquinas de estados Finitos/Maquina_expendedora/Maquina.vcd
$date
  Thu Aug  4 17:02:32 2022
$end
$version
  GHDL v0
$end
$timescale
  1 fs
$end
$scope module standard $end
$upscope $end
$scope module std_logic_1164 $end
$upscope $end
$scope module tb_maquina_expendedora $end
$var reg 1 ! rst $end
$var reg 1 " clk $end
$var reg 1 # u $end
$var reg 1 $ d $end
$var reg 1 % c $end
$var reg 1 & p $end
$scope module simblk00 $end
$var reg 1 ' rst $end
$var reg 1 ( clk $end
$var reg 1 ) u $end
$var reg 1 * d $end
$var reg 1 + c $end
$var reg 1 , p $end
$var reg 3 - qn[2:0] $end
$var reg 3 . qp[2:0] $end
$upscope $end
$upscope $end
$enddefinitions $end
#0
0!
0"
0#
0$
0%
0&
0'
0(
0)
0*
0+
0,
b000 -
b000 .
#50000000
1"
1(
#100000000
0"
0(
#110000000
1!
1'
#150000000
1"
1(
#200000000
0"
0(
#250000000
1"
1(
#300000000
0"
0(
#350000000
1"
1(
#400000000
0"
0(
#425000000
1#
1)
b001 -
#450000000
1"
1(
b010 -
b001 .
#500000000
0"
0(
#535000000
0#
0)
b001 -
#550000000
1"
1(
#600000000
0"
0(
#650000000
1"
1(
#700000000
0"
0(
#750000000
1"
1(
#800000000
0"
0(
#835000000
1#
1)
b010 -
#850000000
1"
1(
b011 -
b010 .
#900000000
0"
0(
#945000000
0#
0)
b010 -
#950000000
1"
1(
#1000000000
0"
0(
#1050000000
1"
1(
#1100000000
0"
0(
#1150000000
1"
1(
#1200000000
0"
0(
#1245000000
1#
1)
b011 -
#1250000000
1"
1&
1(
1,
b000 -
b011 .
#1300000000
0"
0(
#1350000000
1"
0&
1(
0,
b001 -
b000 .
#1355000000
0#
0)
b000 -
#1400000000
0"
0(
#1450000000
1"
1(
#1500000000
0"
0(
#1550000000
1"
1(
#1600000000
0"
0(
#1650000000
1"
1(
#1655000000
1$
1*
b010 -
#1700000000
0"
0(
#1750000000
1"
1(
b100 -
b010 .
#1765000000
0$
0*
b010 -
#1800000000
0"
0(
#1850000000
1"
1(
#1900000000
0"
0(
#1950000000
1"
1(
#2000000000
0"
0(
#2050000000
1"
1(
#2065000000
1$
1*
b100 -
#2100000000
0"
0(
#2150000000
1"
1%
1&
1(
1+
1,
b000 -
b100 .
#2175000000
0$
0*
#2200000000
0"
0(
#2250000000
1"
0%
0&
1(
0+
0,
b000 .
